…
## Summary statistics:

``` r
#find date with the most date
countryvacc %>% select(date) %>% mutate(mode(date))
```

    ## # A tibble: 6,676 x 2
    ##    date       `mode(date)`
    ##    <date>     <chr>       
    ##  1 2021-02-22 numeric     
    ##  2 2021-02-23 numeric     
    ##  3 2021-02-24 numeric     
    ##  4 2021-02-25 numeric     
    ##  5 2021-02-26 numeric     
    ##  6 2021-02-27 numeric     
    ##  7 2021-02-28 numeric     
    ##  8 2021-03-01 numeric     
    ##  9 2021-03-02 numeric     
    ## 10 2021-03-03 numeric     
    ## # … with 6,666 more rows

``` r
#Arrange descending order of vaccines with selected date
countryvacc%>%filter(date =="2021-02-22")%>%arrange(desc(total_vaccinations))
```

    ## # A tibble: 102 x 14
    ##    Country  Region Population `Area (sq. mi.)` `Pop. Density (… `Infant mortali…
    ##    <chr>    <chr>       <dbl>            <dbl> <chr>                       <dbl>
    ##  1 United … NORTH…  298444215          9631420 31,0                           65
    ##  2 United … WESTE…   60609153           244820 247,6                         516
    ##  3 India    ASIA … 1095351995          3287590 333,2                        5629
    ##  4 Israel   NEAR …    6352117            20770 305,8                         703
    ##  5 Brazil   LATIN…  188078227          8511965 22,1                         2961
    ##  6 Turkey   NEAR …   70413958           780580 90,2                         4104
    ##  7 United … NEAR …    2602713            82880 31,4                         1451
    ##  8 Germany  WESTE…   82422299           357021 230,9                         416
    ##  9 France   WESTE…   60876136           547030 111,3                         426
    ## 10 Italy    WESTE…   58133509           301230 193,0                         594
    ## # … with 92 more rows, and 8 more variables: GDP ($ per capita) <dbl>,
    ## #   Birthrate <dbl>, Deathrate <dbl>, date <date>, total_vaccinations <dbl>,
    ## #   people_vaccinated <dbl>, people_fully_vaccinated <dbl>,
    ## #   daily_vaccinations <dbl>
…
